{
    "gamesets": [{
        "name": "Jenga",
        "halo_game": "haloreach",
        "game_variants": ["Jenga Tower V5", "jenga tower v4"],
        "map_variants": ["MINI Jenga Tower V4 (ONLY 14 SPAWN POINTS & 1 spawn point on island)", "MINI Jenga Tower V5"]
    }]
}